// Gameover genrated by blender2ogre 0.6.0

material Gameover
{
  technique
  {
    pass
    {
      ambient 1.0 1.0 1.0
      diffuse 1.0 1.0 1.0
      specular 1.0 1.0 1.0 9800.0
      emissive 0.0 0.0 0.0 1
      texture_unit
      {
        //rotate_anim 0.01
        texture acero.jpg
      }
      texture_unit
      {
        texture envmap.png
        colour_op_ex modulate_x2 src_texture src_current
        env_map spherical
      }
    }
  }
}
